constituency,mcp,dpp,mmd
Chitipa,50277,8007,1220
Karonga,74665,13356,1257
Rumphi,55513,8909,747
Nkhata Bay,45591,11761,663
Likoma,2981,1690,37
Mzimba,287488,26334,2839
Kasungu,199421,22233,1023
Nkhotakota,77439,21656,559
Ntchisi,88985,3740,369
Dowa,235972,7436,696
Salima,77977,19666,1134
Mchinji,135181,15080,761
Lilongwe,644730,68888,2067
Dedza,170268,14724,1492
Ntcheu,81914,26041,2447
Mangochi,33293,195531,2630
Balaka,18108,76834,850
Machinga,14983,131439,1684
Zomba,46610,149051,1823
Chiradzulu,11777,90371,674
Blantyre,142911,169757,1841
Mwanza,9456,12185,336
Neno,6652,21878,364
Thyolo,13631,179454,964
Phalombe,6092,118990,674
Mulanje,17499,173482,1417
Chikhwawa,32706,105523,1222
Nsanje,21923,57861,666
